module github.com/VictoriaMetrics/VictoriaMetrics

go 1.19

require (
	cloud.google.com/go/storage v1.31.0
	github.com/VictoriaMetrics/fastcache v1.12.1

	// Do not use the original github.com/valyala/fasthttp because of issues
	// like https://github.com/valyala/fasthttp/commit/996610f021ff45fdc98c2ce7884d5fa4e7f9199b
	github.com/VictoriaMetrics/fasthttp v1.2.0
	github.com/VictoriaMetrics/metrics v1.24.0
	github.com/VictoriaMetrics/metricsql v0.56.2
	github.com/aws/aws-sdk-go v1.44.322
	github.com/cespare/xxhash/v2 v2.2.0

	// TODO: switch back to https://github.com/cheggaaa/pb/v3 when v3-pooling branch
	// is merged into main branch.
	// See https://github.com/cheggaaa/pb/pull/192#issuecomment-1121285954 for details.
	github.com/dmitryk-dk/pb/v3 v3.0.9
	github.com/golang/snappy v0.0.4
	github.com/influxdata/influxdb v1.11.2
	github.com/klauspost/compress v1.16.7
	github.com/prometheus/prometheus v1.8.2-0.20201119142752-3ad25a6dc3d9
	github.com/urfave/cli/v2 v2.25.7
	github.com/valyala/fastjson v1.6.4
	github.com/valyala/fastrand v1.1.0
	github.com/valyala/fasttemplate v1.2.2
	github.com/valyala/gozstd v1.20.1
	github.com/valyala/quicktemplate v1.7.0
	golang.org/x/net v0.14.0
	golang.org/x/oauth2 v0.11.0
	golang.org/x/sys v0.11.0
	google.golang.org/api v0.136.0
	gopkg.in/yaml.v2 v2.4.0
)

require (
	cloud.google.com/go v0.110.7 // indirect
	cloud.google.com/go/compute v1.23.0 // indirect
	cloud.google.com/go/compute/metadata v0.2.3 // indirect
	cloud.google.com/go/iam v1.1.2 // indirect
	github.com/VividCortex/ewma v1.2.0 // indirect
	github.com/beorn7/perks v1.0.1 // indirect
	github.com/cpuguy83/go-md2man/v2 v2.0.2 // indirect
	github.com/fatih/color v1.15.0 // indirect
	github.com/go-kit/kit v0.12.0 // indirect
	github.com/go-kit/log v0.2.1 // indirect
	github.com/go-logfmt/logfmt v0.6.0 // indirect
	github.com/golang/groupcache v0.0.0-20210331224755-41bb18bfe9da // indirect
	github.com/golang/protobuf v1.5.3 // indirect
	github.com/google/go-cmp v0.5.9 // indirect
	github.com/google/s2a-go v0.1.5 // indirect
	github.com/google/uuid v1.3.0 // indirect
	github.com/googleapis/enterprise-certificate-proxy v0.2.5 // indirect
	github.com/googleapis/gax-go/v2 v2.12.0 // indirect
	github.com/jmespath/go-jmespath v0.4.0 // indirect
	github.com/mattn/go-colorable v0.1.13 // indirect
	github.com/mattn/go-isatty v0.0.19 // indirect
	github.com/mattn/go-runewidth v0.0.15 // indirect
	github.com/matttproud/golang_protobuf_extensions v1.0.4 // indirect
	github.com/oklog/ulid v1.3.1 // indirect
	github.com/pkg/errors v0.9.1 // indirect
	github.com/prometheus/client_golang v1.16.0 // indirect
	github.com/prometheus/client_model v0.4.0 // indirect
	github.com/prometheus/common v0.44.0 // indirect
	github.com/prometheus/procfs v0.11.1 // indirect
	github.com/rivo/uniseg v0.4.4 // indirect
	github.com/russross/blackfriday/v2 v2.1.0 // indirect
	github.com/valyala/bytebufferpool v1.0.0 // indirect
	github.com/valyala/histogram v1.2.0 // indirect
	github.com/xrash/smetrics v0.0.0-20201216005158-039620a65673 // indirect
	go.opencensus.io v0.24.0 // indirect
	go.uber.org/atomic v1.11.0 // indirect
	go.uber.org/goleak v1.1.11-0.20210813005559-691160354723 // indirect
	golang.org/x/crypto v0.12.0 // indirect
	golang.org/x/sync v0.3.0 // indirect
	golang.org/x/text v0.12.0 // indirect
	golang.org/x/xerrors v0.0.0-20220907171357-04be3eba64a2 // indirect
	google.golang.org/appengine v1.6.7 // indirect
	google.golang.org/genproto v0.0.0-20230807174057-1744710a1577 // indirect
	google.golang.org/genproto/googleapis/api v0.0.0-20230807174057-1744710a1577 // indirect
	google.golang.org/genproto/googleapis/rpc v0.0.0-20230807174057-1744710a1577 // indirect
	google.golang.org/grpc v1.57.0 // indirect
	google.golang.org/protobuf v1.31.0 // indirect
)
